\relax 
\@writefile{toc}{\contentsline {section}{\numberline {1}Introduction}{1}}
\@writefile{toc}{\contentsline {paragraph}{Purpose}{1}}
\@writefile{toc}{\contentsline {paragraph}{Scope}{1}}
\@writefile{toc}{\contentsline {section}{\numberline {2}Program Structure}{1}}
\@writefile{toc}{\contentsline {subsection}{\numberline {2.1}Entry Point}{1}}
\@writefile{toc}{\contentsline {paragraph}{Main.cc}{1}}
\@writefile{toc}{\contentsline {subsection}{\numberline {2.2}FrontendAction}{1}}
\@writefile{toc}{\contentsline {paragraph}{KernelRewriteAction}{1}}
\@writefile{toc}{\contentsline {paragraph}{Output Source File}{1}}
\@writefile{toc}{\contentsline {subsection}{\numberline {2.3}RewriteKernel}{1}}
\@writefile{toc}{\contentsline {paragraph}{ASTConsumer}{1}}
\@writefile{toc}{\contentsline {paragraph}{\texttt  {Initialize()}}{2}}
\@writefile{toc}{\contentsline {paragraph}{\texttt  {HandleTopLevelDecl()}}{2}}
\@writefile{toc}{\contentsline {paragraph}{\texttt  {HandleTranslationUnit()}}{2}}
\@writefile{toc}{\contentsline {section}{\numberline {3}Target Hardware Design Structure}{2}}
\@writefile{toc}{\contentsline {paragraph}{Workgroup Unit}{2}}
\@writefile{toc}{\contentsline {subsection}{\numberline {3.1}Thread Control}{2}}
\@writefile{toc}{\contentsline {subsection}{\numberline {3.2}Data Transfer}{2}}
\@writefile{toc}{\contentsline {subsection}{\numberline {3.3}Local Memory (BRAM)}{2}}
\@writefile{toc}{\contentsline {section}{\numberline {4}Abstract Syntax Tree (AST) Parsing}{2}}
\@writefile{toc}{\contentsline {paragraph}{Top Level Function Declarations}{2}}
\@writefile{toc}{\contentsline {subsection}{\numberline {4.1}AST Traversal Methods}{2}}
\@writefile{toc}{\contentsline {paragraph}{Checking the Function Declaration}{2}}
\@writefile{toc}{\contentsline {paragraph}{RewriteKernelFunction}{2}}
\@writefile{toc}{\contentsline {paragraph}{RewriteKernelDeclaration}{2}}
\@writefile{toc}{\contentsline {paragraph}{RewriteKernelStmt}{3}}
\@writefile{toc}{\contentsline {paragraph}{RewriteKernelExpr}{3}}
\@writefile{toc}{\contentsline {section}{\numberline {5}Code Generation}{3}}
\@writefile{toc}{\contentsline {subsection}{\numberline {5.1}AXI4 Interfaces}{3}}
\@writefile{toc}{\contentsline {paragraph}{AXI4 Master Interface}{3}}
\@writefile{toc}{\contentsline {paragraph}{AXI4 Slave Control Interface}{3}}
\@writefile{toc}{\contentsline {paragraph}{Thread Block Control}{3}}
\@writefile{toc}{\contentsline {subsection}{\numberline {5.2}Thread Block Local Storage}{3}}
\@writefile{toc}{\contentsline {paragraph}{Local BRAM Arrays}{3}}
\@writefile{toc}{\contentsline {paragraph}{Host-Device Memory Interface}{3}}
\@writefile{toc}{\contentsline {paragraph}{Host to Device Transfer}{3}}
\@writefile{toc}{\contentsline {paragraph}{Device to Host Transfer}{3}}
\@writefile{toc}{\contentsline {subsection}{\numberline {5.3}Local Thread Block (Workgroup)}{3}}
\@writefile{toc}{\contentsline {paragraph}{Workgroup Dispatch}{3}}
