\relax 
\citation{opencl08}
\citation{Kaeli:2015:HCO:2815521}
\@writefile{toc}{\contentsline {section}{\numberline {1}Introduction}{1}}
\@writefile{toc}{\contentsline {section}{\numberline {2}Background - Parallel Programming with OpenCL}{1}}
\newlabel{sec:opencl}{{2}{1}}
\@writefile{toc}{\contentsline {subsection}{\numberline {2.1}OpenCL Platform Model}{1}}
\@writefile{toc}{\contentsline {paragraph}{OpenCL Platform}{1}}
\@writefile{toc}{\contentsline {paragraph}{OpenCL Devices}{1}}
\@writefile{toc}{\contentsline {subsection}{\numberline {2.2}Execution Model}{1}}
\@writefile{toc}{\contentsline {paragraph}{n-Dimensional Ranges}{1}}
\@writefile{toc}{\contentsline {paragraph}{Work-groups}{1}}
\citation{sdaccel}
\citation{altera_ocl_sdk}
\citation{5694294}
\citation{7393135}
\citation{7393366}
\citation{7294016}
\@writefile{toc}{\contentsline {paragraph}{Work-items}{2}}
\@writefile{toc}{\contentsline {paragraph}{Kernel Execution}{2}}
\@writefile{toc}{\contentsline {subsection}{\numberline {2.3}Memory Model}{2}}
\@writefile{toc}{\contentsline {paragraph}{Memory Objects}{2}}
\@writefile{toc}{\contentsline {paragraph}{Data Transfer}{2}}
\@writefile{toc}{\contentsline {paragraph}{Memory Regions (Address Spaces)}{2}}
\@writefile{toc}{\contentsline {subsection}{\numberline {2.4}FPGA as an OpenCL Accelerator}{2}}
\@writefile{toc}{\contentsline {paragraph}{Commercial Offerings}{2}}
\@writefile{toc}{\contentsline {paragraph}{Academic Research}{2}}
\@writefile{toc}{\contentsline {section}{\numberline {3}Background - FPGA High-level Synthesis}{2}}
\newlabel{sec:hls}{{3}{2}}
\@writefile{toc}{\contentsline {subsection}{\numberline {3.1}HLS Process}{2}}
\@writefile{toc}{\contentsline {paragraph}{Compiler Framework}{2}}
\citation{LLVM:CGO04}
\citation{llvm:cbe}
\@writefile{toc}{\contentsline {paragraph}{Intermediate Representation (IR)}{3}}
\@writefile{toc}{\contentsline {paragraph}{FPGA Primitives}{3}}
\@writefile{toc}{\contentsline {paragraph}{FPGA Synthesis}{3}}
\@writefile{toc}{\contentsline {paragraph}{FPGA Optimization}{3}}
\@writefile{toc}{\contentsline {paragraph}{FPGA as an Accelerator}{3}}
\@writefile{toc}{\contentsline {subsection}{\numberline {3.2}Xilinx HLS-compatible C}{3}}
\newlabel{subsec:hls_c}{{3.2}{3}}
\@writefile{toc}{\contentsline {paragraph}{AutoESL}{3}}
\@writefile{toc}{\contentsline {paragraph}{Directives}{3}}
\@writefile{toc}{\contentsline {paragraph}{Contraints}{3}}
\@writefile{toc}{\contentsline {paragraph}{Types}{3}}
\citation{zynq:datasheet}
\citation{hls-manual}
\citation{martinez-thesis-2011-cu2cl}
\citation{sathre-thesis-2013-cu2cl}
\citation{clang:rewriteobjc}
\@writefile{toc}{\contentsline {subsection}{\numberline {3.3}OpenCL Source Translation}{4}}
\@writefile{toc}{\contentsline {section}{\numberline {4}FPGA OpenCL Kernel Synthesis}{4}}
\@writefile{toc}{\contentsline {subsection}{\numberline {4.1}Memory Hierarchy}{4}}
\@writefile{toc}{\contentsline {paragraph}{Global Memory}{4}}
\@writefile{toc}{\contentsline {paragraph}{Local Memory}{4}}
\@writefile{toc}{\contentsline {paragraph}{Register Memory}{4}}
\@writefile{toc}{\contentsline {subsection}{\numberline {4.2}Host-Device Memory Transfer}{4}}
\@writefile{toc}{\contentsline {paragraph}{AXI4-Master Port}{4}}
\@writefile{toc}{\contentsline {paragraph}{AXI4-Lite Slave}{4}}
\@writefile{toc}{\contentsline {subsection}{\numberline {4.3}Workgroup Execution}{4}}
\@writefile{lof}{\contentsline {figure}{\numberline {1}{\ignorespaces Example FPGA Kernel Execution Core}}{4}}
\newlabel{fig:fpga_execution_unit}{{1}{4}}
\@writefile{toc}{\contentsline {paragraph}{NDRange Execution}{4}}
\@writefile{toc}{\contentsline {paragraph}{Threading Model}{4}}
\@writefile{toc}{\contentsline {section}{\numberline {5}OpenCL Source Code Translation (Transcompilation)}{5}}
\@writefile{toc}{\contentsline {paragraph}{Source-to-source Translation}{5}}
\@writefile{toc}{\contentsline {paragraph}{Automatic Parallelising Compiler}{5}}
\@writefile{toc}{\contentsline {paragraph}{Loop Unrolling and Pipelining}{5}}
\@writefile{toc}{\contentsline {subsection}{\numberline {5.1}Abstract Syntax Tree Traversal}{5}}
\@writefile{toc}{\contentsline {paragraph}{Generating the AST}{5}}
\@writefile{toc}{\contentsline {subsection}{\numberline {5.2}Code Transformation}{5}}
\@writefile{toc}{\contentsline {paragraph}{Top Level Declaration}{5}}
\@writefile{toc}{\contentsline {paragraph}{Function Body Translation}{5}}
\@writefile{toc}{\contentsline {paragraph}{Function Parameter Translation}{5}}
\@writefile{toc}{\contentsline {paragraph}{OpenCL Intrinsic Call Expression Translation}{5}}
\@writefile{lot}{\contentsline {table}{\numberline {1}{\ignorespaces OpenCL Kernel Functions}}{5}}
\newlabel{tab:ocl_funcs}{{1}{5}}
\@writefile{toc}{\contentsline {subsection}{\numberline {5.3}Code Generation}{5}}
\@writefile{toc}{\contentsline {paragraph}{Work-group For-Loop Generation}{5}}
\@writefile{toc}{\contentsline {paragraph}{Local Memory (BRAM)}{6}}
\@writefile{toc}{\contentsline {paragraph}{AXI Interface Generation}{6}}
\@writefile{toc}{\contentsline {paragraph}{Host-Device Memory Transfer}{6}}
\@writefile{toc}{\contentsline {section}{\numberline {6}Translated Kernel Configuration and Optimisation}{6}}
\newlabel{sec:config_opt}{{6}{6}}
\@writefile{toc}{\contentsline {subsection}{\numberline {6.1}Kernel Configuration File}{6}}
\@writefile{toc}{\contentsline {paragraph}{Kernel Configuration}{6}}
\@writefile{toc}{\contentsline {paragraph}{Configuration File}{6}}
\@writefile{lot}{\contentsline {table}{\numberline {2}{\ignorespaces Configuration Parameters}}{6}}
\@writefile{toc}{\contentsline {subsection}{\numberline {6.2}Work-group Configuration Options}{6}}
\@writefile{toc}{\contentsline {paragraph}{Work-group Size}{6}}
\@writefile{toc}{\contentsline {paragraph}{Work-group Loop Unroll Factor}{6}}
\@writefile{toc}{\contentsline {paragraph}{Work-group Pipelining}{6}}
\@writefile{lof}{\contentsline {figure}{\numberline {2}{\ignorespaces Work-flow of Translation, Synthesis and Verification Process}}{7}}
\newlabel{fig:workflow}{{2}{7}}
\@writefile{toc}{\contentsline {subsection}{\numberline {6.3}Interface Configuration Options}{7}}
\@writefile{toc}{\contentsline {paragraph}{Array Partition Factor}{7}}
\@writefile{toc}{\contentsline {paragraph}{Port and Bundle Name}{7}}
\@writefile{toc}{\contentsline {paragraph}{Required Access Type}{7}}
\@writefile{toc}{\contentsline {paragraph}{Burst Transfer Depth}{7}}
\@writefile{toc}{\contentsline {section}{\numberline {7}Synthesis Work-flow}{7}}
\newlabel{sec:workflow}{{7}{7}}
\@writefile{toc}{\contentsline {subsection}{\numberline {7.1}OpenCL Rewriter}{7}}
\@writefile{toc}{\contentsline {subsection}{\numberline {7.2}TCL Script Generator}{7}}
\@writefile{toc}{\contentsline {subsection}{\numberline {7.3}HLS and Verification}{7}}
\citation{Kaeli:2015:HCO:2815521}
\citation{citeulike:4001400}
\citation{arm_amba_2010}
\@writefile{toc}{\contentsline {subsection}{\numberline {7.4}Results Parsing}{8}}
\@writefile{toc}{\contentsline {subsection}{\numberline {7.5}Flow}{8}}
\@writefile{toc}{\contentsline {section}{\numberline {8}Experiments}{8}}
\newlabel{sec:experiments}{{8}{8}}
\@writefile{toc}{\contentsline {subsection}{\numberline {8.1}Measurement}{8}}
\@writefile{toc}{\contentsline {paragraph}{Effective Bandwidth}{8}}
\newlabel{eq:effective_bandwidth}{{1}{8}}
\newlabel{eq:t_deriv}{{2}{8}}
\newlabel{eq:effective_bandwidth_2}{{3}{8}}
\newlabel{eq:effective_bandwidth_mod}{{4}{8}}
\@writefile{toc}{\contentsline {paragraph}{Utilisation}{8}}
\@writefile{toc}{\contentsline {subsection}{\numberline {8.2}Scalar Multiplication}{8}}
\@writefile{toc}{\contentsline {paragraph}{Kernel Complexity}{8}}
\@writefile{toc}{\contentsline {paragraph}{Effective Bandwidth}{8}}
\@writefile{lof}{\contentsline {figure}{\numberline {3}{\ignorespaces Runtime Performance of 8x8 Matrix Multiplication Kernels at 100MHz and $f_{max}$}}{9}}
\newlabel{fig:runtime}{{3}{9}}
\@writefile{toc}{\contentsline {paragraph}{Utilisation}{9}}
\@writefile{toc}{\contentsline {subsection}{\numberline {8.3}Matrix Multiplication}{9}}
\@writefile{toc}{\contentsline {paragraph}{Kernel Complexity}{9}}
\@writefile{toc}{\contentsline {paragraph}{Runtime Performance}{9}}
\@writefile{toc}{\contentsline {paragraph}{Effective Bandwidth}{9}}
\@writefile{toc}{\contentsline {paragraph}{Utilisation}{9}}
\@writefile{lof}{\contentsline {figure}{\numberline {4}{\ignorespaces Effective Bandwidth of 8x8 Matrix Multiplication Kernels at 100MHz and $f_{max}$}}{10}}
\newlabel{fig:effective_bandwidth}{{4}{10}}
\@writefile{lof}{\contentsline {figure}{\numberline {5}{\ignorespaces Utilisation of FPGA Resources by 8x8 Matrix Multiplication Kernels}}{10}}
\newlabel{fig:utilisation}{{5}{10}}
\citation{Jo:2014:OFA:2568058.2568064}
\citation{arm:mali}
\@writefile{toc}{\contentsline {section}{\numberline {9}Future Improvements and Development}{11}}
\newlabel{sec:future}{{9}{11}}
\@writefile{toc}{\contentsline {subsection}{\numberline {9.1}Utilisation Improvements}{11}}
\@writefile{toc}{\contentsline {paragraph}{Reducing LUT usage}{11}}
\@writefile{toc}{\contentsline {paragraph}{Utilisation of non-FPGA Resources}{11}}
\@writefile{toc}{\contentsline {subsection}{\numberline {9.2}Kernel Profiling}{11}}
\@writefile{toc}{\contentsline {paragraph}{Measuring Profile}{11}}
\@writefile{toc}{\contentsline {paragraph}{Optimisation}{11}}
\@writefile{toc}{\contentsline {subsection}{\numberline {9.3}Work-group Size Selection}{11}}
\@writefile{toc}{\contentsline {subsection}{\numberline {9.4}Scalable Resource Management}{11}}
\@writefile{toc}{\contentsline {subsection}{\numberline {9.5}Expanding OpenCL Support}{11}}
\newlabel{subsec:ocl_support}{{9.5}{11}}
\@writefile{toc}{\contentsline {paragraph}{Scalable Work-groups}{11}}
\@writefile{toc}{\contentsline {paragraph}{Work-group Synchronisation}{11}}
\citation{Jak2014}
\bibstyle{plain}
\bibdata{report.bib}
\bibcite{sdaccel}{1}
\bibcite{hls-manual}{2}
\bibcite{zynq:datasheet}{3}
\bibcite{citeulike:4001400}{4}
\bibcite{altera_ocl_sdk}{5}
\bibcite{arm_amba_2010}{6}
\bibcite{arm:mali}{7}
\bibcite{7294016}{8}
\bibcite{Jak2014}{9}
\bibcite{Jo:2014:OFA:2568058.2568064}{10}
\bibcite{Kaeli:2015:HCO:2815521}{11}
\bibcite{opencl08}{12}
\bibcite{LLVM:CGO04}{13}
\bibcite{5694294}{14}
\bibcite{llvm:cbe}{15}
\bibcite{martinez-thesis-2011-cu2cl}{16}
\bibcite{7393135}{17}
\bibcite{7393366}{18}
\bibcite{clang:rewriteobjc}{19}
\bibcite{sathre-thesis-2013-cu2cl}{20}
\@writefile{toc}{\contentsline {subsection}{\numberline {9.6}OpenCL Runtime}{12}}
\@writefile{toc}{\contentsline {paragraph}{Bare Metal}{12}}
\@writefile{toc}{\contentsline {paragraph}{Linux Runtime}{12}}
\@writefile{toc}{\contentsline {paragraph}{FPGA Linux Driver}{12}}
\@writefile{toc}{\contentsline {section}{Appendices}{13}}
\@writefile{toc}{\contentsline {section}{\numberline {A}Source-to-source Tool}{13}}
\@writefile{toc}{\contentsline {subsection}{\numberline {A.A}Algorithms}{13}}
\newlabel{algo:rewritekernelfunction}{{A.A}{13}}
\@writefile{lof}{\contentsline {figure}{\numberline {6}{\ignorespaces Top-Level Kernel Rewriting Algorithm}}{13}}
\newlabel{algo:rewritekerneldeclaration}{{A.A}{13}}
\@writefile{lof}{\contentsline {figure}{\numberline {7}{\ignorespaces Function Declaration Rewriting Algorithm}}{13}}
\newlabel{algo:rewritekernelparam}{{A.A}{13}}
\@writefile{lof}{\contentsline {figure}{\numberline {8}{\ignorespaces Function Parameter Processing Algorithm}}{13}}
\newlabel{algo:rewritekernelstmt}{{A.A}{14}}
\@writefile{lof}{\contentsline {figure}{\numberline {9}{\ignorespaces Recursive Statement Processing Algorithm}}{14}}
\@writefile{toc}{\contentsline {section}{\numberline {B}Scalar Multiplication Kernel}{14}}
\@writefile{toc}{\contentsline {subsection}{\numberline {B.A}Source Code}{14}}
\@writefile{lof}{\contentsline {figure}{\numberline {10}{\ignorespaces Scalar Multiplication OpenCL Kernel}}{14}}
\newlabel{fig:scalar_kernel}{{10}{14}}
\@writefile{lof}{\contentsline {figure}{\numberline {11}{\ignorespaces Scalar Multiplication Kernel Base Configuration File}}{14}}
\@writefile{toc}{\contentsline {subsection}{\numberline {B.B}Results}{15}}
\@writefile{lot}{\contentsline {table}{\numberline {3}{\ignorespaces Scalar Multiplication Results}}{15}}
\newlabel{tab:scalar_mul_exper}{{3}{15}}
\@writefile{lot}{\contentsline {table}{\numberline {4}{\ignorespaces Scalar Multiplication Utilisation Results}}{15}}
\newlabel{tab:scalar_mul_util}{{4}{15}}
\@writefile{lot}{\contentsline {table}{\numberline {5}{\ignorespaces Scalar Multiplication Performance Results}}{15}}
\newlabel{tab:scalar_mul_perf}{{5}{15}}
\@writefile{toc}{\contentsline {subsection}{\numberline {B.C}Synthesised Execution Pipelines}{15}}
\@writefile{lof}{\contentsline {figure}{\numberline {12}{\ignorespaces Pipelined Scalar Multiplication Kernel with Unroll Factor 2}}{15}}
\@writefile{lof}{\contentsline {figure}{\numberline {13}{\ignorespaces Pipelined Scalar Multiplication Kernel with Unroll Factor 4}}{16}}
\@writefile{lof}{\contentsline {figure}{\numberline {14}{\ignorespaces Pipelined Scalar Multiplication Kernel with Unroll Factor 8}}{16}}
\@writefile{lof}{\contentsline {figure}{\numberline {15}{\ignorespaces Pipelined Scalar Multiplication Kernel with Unroll Factor 16}}{16}}
\@writefile{lof}{\contentsline {figure}{\numberline {16}{\ignorespaces Pipelined Scalar Multiplication Kernel with Unroll Factor 32}}{16}}
\@writefile{lof}{\contentsline {figure}{\numberline {17}{\ignorespaces Fully Unrolled Scalar Multiplication Kernel}}{17}}
\@writefile{toc}{\contentsline {section}{\numberline {C}Matrix Multiplication Kernel}{17}}
\@writefile{toc}{\contentsline {subsection}{\numberline {C.A}Source Code}{17}}
\@writefile{lof}{\contentsline {figure}{\numberline {18}{\ignorespaces 8x8 Matrix Multiplication OpenCL Kernel}}{17}}
\newlabel{fig:matmul_kernel}{{18}{17}}
\@writefile{toc}{\contentsline {subsection}{\numberline {C.B}Results}{18}}
\@writefile{lot}{\contentsline {table}{\numberline {6}{\ignorespaces Matrix Multiplication Results}}{18}}
\newlabel{tab:mat_mul_exper}{{6}{18}}
\@writefile{lot}{\contentsline {table}{\numberline {7}{\ignorespaces Scalar Multiplication Utilisation Results}}{18}}
\@writefile{lot}{\contentsline {table}{\numberline {8}{\ignorespaces Scalar Multiplication Performance Results}}{18}}
\@writefile{toc}{\contentsline {subsection}{\numberline {C.C}Synthesised Execution Pipelines}{18}}
\@writefile{lof}{\contentsline {figure}{\numberline {19}{\ignorespaces Matrix Multiplication without Unrolling}}{18}}
\@writefile{lof}{\contentsline {figure}{\numberline {20}{\ignorespaces Matrix Multiplication Unroll Factor 2 in x-Dimension}}{19}}
\@writefile{lof}{\contentsline {figure}{\numberline {21}{\ignorespaces Partially Unrolled (x=4,y=4) Matrix Multiplication Kernel}}{20}}
